-----------Exception Details on  03-12-2021 14:53:53-----------------
-------------------------------------------------------------------------------------



Log Written Date: 03-12-2021 14:53:53

Error Line No : ine 196

Error Message: NullReferenceException

Exception Type: System.NullReferenceException

Error Location : Object reference not set to an instance of an object.

 Error Page Url: EzeeFormsRegistrationdll.cs

 function: AllEzeeFormsRegistration

jsonstring:

 User Host IP: 


--------------------------------*End*------------------------------------------



-----------Exception Details on  03-12-2021 15:13:33-----------------
-------------------------------------------------------------------------------------



Log Written Date: 03-12-2021 15:13:33

Error Line No : Parser)

Error Message: SqlException

Exception Type: System.Data.SqlClient.SqlException

Error Location : The conversion of the nvarchar value '9999999999' overflowed an int column.
The statement has been terminated.

 Error Page Url: EzeeFormsRegistrationdll.cs

 function: AllEzeeFormsRegistration

jsonstring:[{
    'Aadhar_No': '9999999999',
    'AboutShop': '9999999999',
    'AddressLine1': '9999999999',
    'AddressLine2': '9999999999',
    'AlternateMobile': '9999999999',
    'Area': '9999999999',
    'Average': '9999999999',
    'CreatedBy': '9999999999',
   
    'DOB': '9999999999',
    'DealerMobNo': '9999999999',
    'District': '9999999999',
  
    'EntryDate': '9999999999',
   
    'Favorite': '9999999999',
    'FromTime': '9999999999',
    'GCM_Regid': '9999999999',
    'GSTIN_No': '9999999999',
    'Gender': '9999999999',
    'HomeDeliveryCharges': '9999999999',
    'Id': '9999999999',
    'LadlineNo': '9999999999',
    'Landmark': '9999999999',
   
    'Middle_Name': '9999999999',
    'MinOrderAmount': '9999999999',
    'MobileSecurity': '9999999999',
   
    'OTP': '9999999999',
    'Pan_No': '9999999999',
    'ProfilePic': '9999999999',
    'Qualification': '9999999999',
    'RefMobileNo': '9999999999',
    'RoleID': '9999999999',
    'ServerId': '9999999999',
    'Services_Provided': '9999999999',
    'ShopImage': '9999999999',
    'ShopImage_Wide': '9999999999',
    'ShopType': '9999999999',
    'Spatialization': '9999999999',
    'State': '9999999999',
    'Taluka': '9999999999',
    'ToTime': '9999999999',
    'UdiseCode': '9999999999',
    'UserId': '9999999999',
    'UserRole': '9999999999',
    'Village': '9999999999',
    'WifiRouter': '9999999999',
    'address': '9999999999',
    'eMailId': '9999999999',
    'firmName': '9999999999',
    'firstName': '9999999999',
    'keyword': 'Needly',
    'lastName': '9999999999',
    'latitude': '9999999999',
    'longitude': '9999999999',
    'mobileNo': '9995599999',
    'passcode': '9999999999',
    'passcodelimit': '9999999999',
    'pincode': '9999999999',
    'status': '9999999999',
    'strDevId': '9999999999',
    'strSimSerialNo': '9999999999',
    'typeOfUse_Id': '9999999999',
    'usertype': '9999999999'
  }]

 User Host IP: 


--------------------------------*End*------------------------------------------



