-----------Exception Details on  04-10-2021 00:12:56-----------------
-------------------------------------------------------------------------------------



Log Written Date: 04-10-2021 00:12:56

Error Line No : line 38

Error Message: FormatException

Exception Type: System.FormatException

Error Location : Input string was not in a correct format.

 Error Page Url: http://localhost:19226/Admin/Home.aspx

User Host IP: 


--------------------------------*End*------------------------------------------



-----------Exception Details on  04-10-2021 00:13:09-----------------
-------------------------------------------------------------------------------------



Log Written Date: 04-10-2021 00:13:09

Error Line No : line 38

Error Message: FormatException

Exception Type: System.FormatException

Error Location : Input string was not in a correct format.

 Error Page Url: http://localhost:19226/Admin/UploadRecords.aspx

User Host IP: 


--------------------------------*End*------------------------------------------



-----------Exception Details on  04-10-2021 00:13:32-----------------
-------------------------------------------------------------------------------------



Log Written Date: 04-10-2021 00:13:32

Error Line No : ine 149

Error Message: InvalidOperationException

Exception Type: System.InvalidOperationException

Error Location : The connection was not closed. The connection's current state is open.

 Error Page Url: http://localhost:19226/Admin/UploadRecords.aspx

User Host IP: 


--------------------------------*End*------------------------------------------



-----------Exception Details on  04-10-2021 00:15:35-----------------
-------------------------------------------------------------------------------------



Log Written Date: 04-10-2021 00:15:35

Error Line No : line 38

Error Message: FormatException

Exception Type: System.FormatException

Error Location : Input string was not in a correct format.

 Error Page Url: http://localhost:19226/Admin/Home.aspx

User Host IP: 


--------------------------------*End*------------------------------------------



-----------Exception Details on  04-10-2021 00:15:43-----------------
-------------------------------------------------------------------------------------



Log Written Date: 04-10-2021 00:15:43

Error Line No : line 38

Error Message: FormatException

Exception Type: System.FormatException

Error Location : Input string was not in a correct format.

 Error Page Url: http://localhost:19226/Admin/UploadRecords.aspx

User Host IP: 


--------------------------------*End*------------------------------------------



-----------Exception Details on  04-10-2021 00:17:33-----------------
-------------------------------------------------------------------------------------



Log Written Date: 04-10-2021 00:17:33

Error Line No : Args e)

Error Message: InvalidOperationException

Exception Type: System.InvalidOperationException

Error Location : The connection was not closed. The connection's current state is open.

 Error Page Url: http://localhost:19226/Admin/UploadRecords.aspx

User Host IP: 


--------------------------------*End*------------------------------------------



-----------Exception Details on  04-10-2021 00:18:11-----------------
-------------------------------------------------------------------------------------



Log Written Date: 04-10-2021 00:18:11

Error Line No : Args e)

Error Message: ThreadAbortException

Exception Type: System.Threading.ThreadAbortException

Error Location : Thread was being aborted.

 Error Page Url: http://localhost:19226/Admin/UploadRecords.aspx

User Host IP: 


--------------------------------*End*------------------------------------------



-----------Exception Details on  04-10-2021 00:18:26-----------------
-------------------------------------------------------------------------------------



Log Written Date: 04-10-2021 00:18:26

Error Line No : Args e)

Error Message: FormatException

Exception Type: System.FormatException

Error Location : Input string was not in a correct format.

 Error Page Url: http://localhost:19226/Admin/Home.aspx

User Host IP: 


--------------------------------*End*------------------------------------------



-----------Exception Details on  04-10-2021 00:18:33-----------------
-------------------------------------------------------------------------------------



Log Written Date: 04-10-2021 00:18:33

Error Line No : Args e)

Error Message: FormatException

Exception Type: System.FormatException

Error Location : Input string was not in a correct format.

 Error Page Url: http://localhost:19226/Admin/UploadRecords.aspx

User Host IP: 


--------------------------------*End*------------------------------------------



-----------Exception Details on  04-10-2021 00:20:44-----------------
-------------------------------------------------------------------------------------



Log Written Date: 04-10-2021 00:20:44

Error Line No : Args e)

Error Message: InvalidOperationException

Exception Type: System.InvalidOperationException

Error Location : ExecuteNonQuery: Connection property has not been initialized.

 Error Page Url: http://localhost:19226/Admin/UploadRecords.aspx

User Host IP: 


--------------------------------*End*------------------------------------------



-----------Exception Details on  04-10-2021 00:22:32-----------------
-------------------------------------------------------------------------------------



Log Written Date: 04-10-2021 00:22:32

Error Line No : Args e)

Error Message: ArgumentOutOfRangeException

Exception Type: System.ArgumentOutOfRangeException

Error Location : Index and length must refer to a location within the string.
Parameter name: length

 Error Page Url: http://localhost:19226/Admin/UploadRecords.aspx

User Host IP: 


--------------------------------*End*------------------------------------------



-----------Exception Details on  04-10-2021 00:23:36-----------------
-------------------------------------------------------------------------------------



Log Written Date: 04-10-2021 00:23:36

Error Line No : Args e)

Error Message: ArgumentOutOfRangeException

Exception Type: System.ArgumentOutOfRangeException

Error Location : Index and length must refer to a location within the string.
Parameter name: length

 Error Page Url: http://localhost:19226/Admin/UploadRecords.aspx

User Host IP: 


--------------------------------*End*------------------------------------------



-----------Exception Details on  04-10-2021 00:26:03-----------------
-------------------------------------------------------------------------------------



Log Written Date: 04-10-2021 00:26:03

Error Line No : Args e)

Error Message: ArgumentOutOfRangeException

Exception Type: System.ArgumentOutOfRangeException

Error Location : Index and length must refer to a location within the string.
Parameter name: length

 Error Page Url: http://localhost:19226/Admin/UploadRecords.aspx

User Host IP: 


--------------------------------*End*------------------------------------------



-----------Exception Details on  04-10-2021 00:31:51-----------------
-------------------------------------------------------------------------------------



Log Written Date: 04-10-2021 00:31:51

Error Line No : line 38

Error Message: FormatException

Exception Type: System.FormatException

Error Location : Input string was not in a correct format.

 Error Page Url: http://localhost:19226/Admin/Home.aspx

User Host IP: 


--------------------------------*End*------------------------------------------



-----------Exception Details on  04-10-2021 00:32:12-----------------
-------------------------------------------------------------------------------------



Log Written Date: 04-10-2021 00:32:12

Error Line No : line 38

Error Message: FormatException

Exception Type: System.FormatException

Error Location : Input string was not in a correct format.

 Error Page Url: http://localhost:19226/Admin/UploadRecords.aspx

User Host IP: 


--------------------------------*End*------------------------------------------



-----------Exception Details on  04-10-2021 00:34:44-----------------
-------------------------------------------------------------------------------------



Log Written Date: 04-10-2021 00:33:52

Error Line No : ine 162

Error Message: ArgumentOutOfRangeException

Exception Type: System.ArgumentOutOfRangeException

Error Location : Index and length must refer to a location within the string.
Parameter name: length

 Error Page Url: http://localhost:19226/Admin/UploadRecords.aspx

User Host IP: 


--------------------------------*End*------------------------------------------



-----------Exception Details on  04-10-2021 00:41:52-----------------
-------------------------------------------------------------------------------------



Log Written Date: 04-10-2021 00:41:52

Error Line No : Args e)

Error Message: FormatException

Exception Type: System.FormatException

Error Location : Input string was not in a correct format.

 Error Page Url: http://localhost:19226/Admin/UploadRecords.aspx

User Host IP: 


--------------------------------*End*------------------------------------------



-----------Exception Details on  04-10-2021 00:42:26-----------------
-------------------------------------------------------------------------------------



Log Written Date: 04-10-2021 00:42:26

Error Line No : Args e)

Error Message: FormatException

Exception Type: System.FormatException

Error Location : Input string was not in a correct format.

 Error Page Url: http://localhost:19226/Admin/UploadRecords.aspx

User Host IP: 


--------------------------------*End*------------------------------------------



-----------Exception Details on  04-10-2021 00:42:36-----------------
-------------------------------------------------------------------------------------



Log Written Date: 04-10-2021 00:42:36

Error Line No : Args e)

Error Message: FormatException

Exception Type: System.FormatException

Error Location : Input string was not in a correct format.

 Error Page Url: http://localhost:19226/Admin/NeedlyMarketingPerson.aspx

User Host IP: 


--------------------------------*End*------------------------------------------



-----------Exception Details on  04-10-2021 00:43:47-----------------
-------------------------------------------------------------------------------------



Log Written Date: 04-10-2021 00:43:47

Error Line No : Args e)

Error Message: FormatException

Exception Type: System.FormatException

Error Location : Input string was not in a correct format.

 Error Page Url: http://localhost:19226/Admin/UploadRecords.aspx

User Host IP: 


--------------------------------*End*------------------------------------------



-----------Exception Details on  04-10-2021 00:58:11-----------------
-------------------------------------------------------------------------------------



Log Written Date: 04-10-2021 00:58:11

Error Line No : line 38

Error Message: FormatException

Exception Type: System.FormatException

Error Location : Input string was not in a correct format.

 Error Page Url: http://localhost:19226/Admin/Home.aspx

User Host IP: 


--------------------------------*End*------------------------------------------



-----------Exception Details on  04-10-2021 00:58:20-----------------
-------------------------------------------------------------------------------------



Log Written Date: 04-10-2021 00:58:20

Error Line No : line 38

Error Message: FormatException

Exception Type: System.FormatException

Error Location : Input string was not in a correct format.

 Error Page Url: http://localhost:19226/Admin/UploadRecords.aspx

User Host IP: 


--------------------------------*End*------------------------------------------



-----------Exception Details on  04-10-2021 01:00:55-----------------
-------------------------------------------------------------------------------------



Log Written Date: 04-10-2021 01:00:55

Error Line No : line 38

Error Message: FormatException

Exception Type: System.FormatException

Error Location : Input string was not in a correct format.

 Error Page Url: http://localhost:19226/Admin/UploadRecords.aspx

User Host IP: 


--------------------------------*End*------------------------------------------



-----------Exception Details on  04-10-2021 01:03:52-----------------
-------------------------------------------------------------------------------------



Log Written Date: 04-10-2021 01:03:52

Error Line No : line 38

Error Message: FormatException

Exception Type: System.FormatException

Error Location : Input string was not in a correct format.

 Error Page Url: http://localhost:19226/Admin/Home.aspx

User Host IP: 


--------------------------------*End*------------------------------------------



-----------Exception Details on  04-10-2021 01:04:01-----------------
-------------------------------------------------------------------------------------



Log Written Date: 04-10-2021 01:04:01

Error Line No : line 38

Error Message: FormatException

Exception Type: System.FormatException

Error Location : Input string was not in a correct format.

 Error Page Url: http://localhost:19226/Admin/UploadRecords.aspx

User Host IP: 


--------------------------------*End*------------------------------------------



-----------Exception Details on  04-10-2021 01:14:31-----------------
-------------------------------------------------------------------------------------



Log Written Date: 04-10-2021 01:14:31

Error Line No : line 38

Error Message: FormatException

Exception Type: System.FormatException

Error Location : Input string was not in a correct format.

 Error Page Url: http://localhost:19226/Admin/Home.aspx

User Host IP: 


--------------------------------*End*------------------------------------------



-----------Exception Details on  04-10-2021 01:14:54-----------------
-------------------------------------------------------------------------------------



Log Written Date: 04-10-2021 01:14:54

Error Line No : line 38

Error Message: FormatException

Exception Type: System.FormatException

Error Location : Input string was not in a correct format.

 Error Page Url: http://localhost:19226/Admin/UploadRecords.aspx

User Host IP: 


--------------------------------*End*------------------------------------------



-----------Exception Details on  04-10-2021 01:17:48-----------------
-------------------------------------------------------------------------------------



Log Written Date: 04-10-2021 01:17:48

Error Line No : line 38

Error Message: FormatException

Exception Type: System.FormatException

Error Location : Input string was not in a correct format.

 Error Page Url: http://localhost:19226/Admin/Home.aspx

User Host IP: 


--------------------------------*End*------------------------------------------



-----------Exception Details on  04-10-2021 01:17:57-----------------
-------------------------------------------------------------------------------------



Log Written Date: 04-10-2021 01:17:57

Error Line No : line 38

Error Message: FormatException

Exception Type: System.FormatException

Error Location : Input string was not in a correct format.

 Error Page Url: http://localhost:19226/Admin/UploadRecords.aspx

User Host IP: 


--------------------------------*End*------------------------------------------



-----------Exception Details on  04-10-2021 01:27:11-----------------
-------------------------------------------------------------------------------------



Log Written Date: 04-10-2021 01:27:11

Error Line No : line 38

Error Message: FormatException

Exception Type: System.FormatException

Error Location : Input string was not in a correct format.

 Error Page Url: http://localhost:19226/Admin/Home.aspx

User Host IP: 


--------------------------------*End*------------------------------------------



-----------Exception Details on  04-10-2021 01:27:17-----------------
-------------------------------------------------------------------------------------



Log Written Date: 04-10-2021 01:27:17

Error Line No : line 38

Error Message: FormatException

Exception Type: System.FormatException

Error Location : Input string was not in a correct format.

 Error Page Url: http://localhost:19226/Admin/UploadRecords.aspx

User Host IP: 


--------------------------------*End*------------------------------------------



-----------Exception Details on  04-10-2021 01:30:39-----------------
-------------------------------------------------------------------------------------



Log Written Date: 04-10-2021 01:30:39

Error Line No : line 38

Error Message: FormatException

Exception Type: System.FormatException

Error Location : Input string was not in a correct format.

 Error Page Url: http://localhost:19226/Admin/UploadRecords.aspx

User Host IP: 


--------------------------------*End*------------------------------------------



-----------Exception Details on  04-10-2021 01:32:43-----------------
-------------------------------------------------------------------------------------



Log Written Date: 04-10-2021 01:32:43

Error Line No : line 38

Error Message: FormatException

Exception Type: System.FormatException

Error Location : Input string was not in a correct format.

 Error Page Url: http://localhost:19226/Admin/Home.aspx

User Host IP: 


--------------------------------*End*------------------------------------------



-----------Exception Details on  04-10-2021 01:32:51-----------------
-------------------------------------------------------------------------------------



Log Written Date: 04-10-2021 01:32:51

Error Line No : line 38

Error Message: FormatException

Exception Type: System.FormatException

Error Location : Input string was not in a correct format.

 Error Page Url: http://localhost:19226/Admin/UploadRecords.aspx

User Host IP: 


--------------------------------*End*------------------------------------------



-----------Exception Details on  04-10-2021 01:36:18-----------------
-------------------------------------------------------------------------------------



Log Written Date: 04-10-2021 01:36:18

Error Line No : line 38

Error Message: FormatException

Exception Type: System.FormatException

Error Location : Input string was not in a correct format.

 Error Page Url: http://localhost:19226/Admin/Home.aspx

User Host IP: 


--------------------------------*End*------------------------------------------



-----------Exception Details on  04-10-2021 01:36:31-----------------
-------------------------------------------------------------------------------------



Log Written Date: 04-10-2021 01:36:31

Error Line No : line 38

Error Message: FormatException

Exception Type: System.FormatException

Error Location : Input string was not in a correct format.

 Error Page Url: http://localhost:19226/Admin/UploadRecords.aspx

User Host IP: 


--------------------------------*End*------------------------------------------



-----------Exception Details on  04-10-2021 01:38:23-----------------
-------------------------------------------------------------------------------------



Log Written Date: 04-10-2021 01:38:23

Error Line No : line 38

Error Message: FormatException

Exception Type: System.FormatException

Error Location : Input string was not in a correct format.

 Error Page Url: http://localhost:19226/Admin/UploadRecords.aspx

User Host IP: 


--------------------------------*End*------------------------------------------



-----------Exception Details on  04-10-2021 01:40:41-----------------
-------------------------------------------------------------------------------------



Log Written Date: 04-10-2021 01:40:41

Error Line No : line 38

Error Message: FormatException

Exception Type: System.FormatException

Error Location : Input string was not in a correct format.

 Error Page Url: http://localhost:19226/Admin/Home.aspx

User Host IP: 


--------------------------------*End*------------------------------------------



-----------Exception Details on  04-10-2021 01:40:49-----------------
-------------------------------------------------------------------------------------



Log Written Date: 04-10-2021 01:40:49

Error Line No : line 38

Error Message: FormatException

Exception Type: System.FormatException

Error Location : Input string was not in a correct format.

 Error Page Url: http://localhost:19226/Admin/UploadRecords.aspx

User Host IP: 


--------------------------------*End*------------------------------------------



-----------Exception Details on  04-10-2021 02:00:33-----------------
-------------------------------------------------------------------------------------



Log Written Date: 04-10-2021 02:00:33

Error Line No : line 38

Error Message: FormatException

Exception Type: System.FormatException

Error Location : Input string was not in a correct format.

 Error Page Url: http://localhost:19226/Admin/Home.aspx

User Host IP: 


--------------------------------*End*------------------------------------------



-----------Exception Details on  04-10-2021 02:00:42-----------------
-------------------------------------------------------------------------------------



Log Written Date: 04-10-2021 02:00:42

Error Line No : line 38

Error Message: FormatException

Exception Type: System.FormatException

Error Location : Input string was not in a correct format.

 Error Page Url: http://localhost:19226/Admin/UploadRecords.aspx

User Host IP: 


--------------------------------*End*------------------------------------------



-----------Exception Details on  04-10-2021 02:10:51-----------------
-------------------------------------------------------------------------------------



Log Written Date: 04-10-2021 02:10:51

Error Line No : line 38

Error Message: FormatException

Exception Type: System.FormatException

Error Location : Input string was not in a correct format.

 Error Page Url: http://localhost:19226/Admin/NeedlyMarketingPerson.aspx

User Host IP: 


--------------------------------*End*------------------------------------------



-----------Exception Details on  04-10-2021 02:13:09-----------------
-------------------------------------------------------------------------------------



Log Written Date: 04-10-2021 02:13:09

Error Line No : line 38

Error Message: FormatException

Exception Type: System.FormatException

Error Location : Input string was not in a correct format.

 Error Page Url: http://localhost:19226/Admin/UploadRecords.aspx

User Host IP: 


--------------------------------*End*------------------------------------------



-----------Exception Details on  04-10-2021 10:07:49-----------------
-------------------------------------------------------------------------------------



Log Written Date: 04-10-2021 10:07:49

Error Line No : line 38

Error Message: FormatException

Exception Type: System.FormatException

Error Location : Input string was not in a correct format.

 Error Page Url: http://localhost:19226/Admin/Home.aspx

User Host IP: 


--------------------------------*End*------------------------------------------



-----------Exception Details on  04-10-2021 10:08:14-----------------
-------------------------------------------------------------------------------------



Log Written Date: 04-10-2021 10:08:14

Error Line No : line 38

Error Message: FormatException

Exception Type: System.FormatException

Error Location : Input string was not in a correct format.

 Error Page Url: http://localhost:19226/Admin/UploadRecords.aspx

User Host IP: 


--------------------------------*End*------------------------------------------



-----------Exception Details on  04-10-2021 10:09:24-----------------
-------------------------------------------------------------------------------------



Log Written Date: 04-10-2021 10:09:24

Error Line No : line 38

Error Message: FormatException

Exception Type: System.FormatException

Error Location : Input string was not in a correct format.

 Error Page Url: http://localhost:19226/Admin/UploadRecords.aspx

User Host IP: 


--------------------------------*End*------------------------------------------



-----------Exception Details on  04-10-2021 10:09:46-----------------
-------------------------------------------------------------------------------------



Log Written Date: 04-10-2021 10:09:46

Error Line No : line 38

Error Message: FormatException

Exception Type: System.FormatException

Error Location : Input string was not in a correct format.

 Error Page Url: http://localhost:19226/Admin/NeedlyMarketingPerson.aspx

User Host IP: 


--------------------------------*End*------------------------------------------



-----------Exception Details on  04-10-2021 10:10:15-----------------
-------------------------------------------------------------------------------------



Log Written Date: 04-10-2021 10:10:15

Error Line No : line 38

Error Message: FormatException

Exception Type: System.FormatException

Error Location : Input string was not in a correct format.

 Error Page Url: http://localhost:19226/Admin/UploadRecords.aspx

User Host IP: 


--------------------------------*End*------------------------------------------



-----------Exception Details on  04-10-2021 10:22:27-----------------
-------------------------------------------------------------------------------------



Log Written Date: 04-10-2021 10:22:27

Error Line No : line 38

Error Message: FormatException

Exception Type: System.FormatException

Error Location : Input string was not in a correct format.

 Error Page Url: http://localhost:19226/Admin/UploadRecords.aspx

User Host IP: 


--------------------------------*End*------------------------------------------



-----------Exception Details on  04-10-2021 10:24:30-----------------
-------------------------------------------------------------------------------------



Log Written Date: 04-10-2021 10:24:30

Error Line No : line 38

Error Message: FormatException

Exception Type: System.FormatException

Error Location : Input string was not in a correct format.

 Error Page Url: http://localhost:19226/Admin/Home.aspx

User Host IP: 


--------------------------------*End*------------------------------------------



-----------Exception Details on  04-10-2021 10:24:39-----------------
-------------------------------------------------------------------------------------



Log Written Date: 04-10-2021 10:24:39

Error Line No : line 38

Error Message: FormatException

Exception Type: System.FormatException

Error Location : Input string was not in a correct format.

 Error Page Url: http://localhost:19226/Admin/UploadRecords.aspx

User Host IP: 


--------------------------------*End*------------------------------------------



-----------Exception Details on  04-10-2021 10:30:23-----------------
-------------------------------------------------------------------------------------



Log Written Date: 04-10-2021 10:30:23

Error Line No : line 38

Error Message: FormatException

Exception Type: System.FormatException

Error Location : Input string was not in a correct format.

 Error Page Url: http://localhost:19226/Admin/Home.aspx

User Host IP: 


--------------------------------*End*------------------------------------------



-----------Exception Details on  04-10-2021 10:30:41-----------------
-------------------------------------------------------------------------------------



Log Written Date: 04-10-2021 10:30:41

Error Line No : line 38

Error Message: FormatException

Exception Type: System.FormatException

Error Location : Input string was not in a correct format.

 Error Page Url: http://localhost:19226/Admin/UploadRecords.aspx

User Host IP: 


--------------------------------*End*------------------------------------------



-----------Exception Details on  04-10-2021 10:30:44-----------------
-------------------------------------------------------------------------------------



Log Written Date: 04-10-2021 10:30:44

Error Line No : line 38

Error Message: FormatException

Exception Type: System.FormatException

Error Location : Input string was not in a correct format.

 Error Page Url: http://localhost:19226/Admin/NeedlyMarketingPerson.aspx

User Host IP: 


--------------------------------*End*------------------------------------------



-----------Exception Details on  04-10-2021 10:31:14-----------------
-------------------------------------------------------------------------------------



Log Written Date: 04-10-2021 10:31:14

Error Line No : line 38

Error Message: FormatException

Exception Type: System.FormatException

Error Location : Input string was not in a correct format.

 Error Page Url: http://localhost:19226/Admin/UploadRecords.aspx

User Host IP: 


--------------------------------*End*------------------------------------------



-----------Exception Details on  04-10-2021 10:33:27-----------------
-------------------------------------------------------------------------------------



Log Written Date: 04-10-2021 10:33:27

Error Line No : line 38

Error Message: FormatException

Exception Type: System.FormatException

Error Location : Input string was not in a correct format.

 Error Page Url: http://localhost:19226/Admin/UploadRecords.aspx

User Host IP: 


--------------------------------*End*------------------------------------------



-----------Exception Details on  04-10-2021 10:33:31-----------------
-------------------------------------------------------------------------------------



Log Written Date: 04-10-2021 10:33:31

Error Line No : line 38

Error Message: FormatException

Exception Type: System.FormatException

Error Location : Input string was not in a correct format.

 Error Page Url: http://localhost:19226/Admin/UploadRecords.aspx

User Host IP: 


--------------------------------*End*------------------------------------------



-----------Exception Details on  04-10-2021 10:33:34-----------------
-------------------------------------------------------------------------------------



Log Written Date: 04-10-2021 10:33:34

Error Line No : line 38

Error Message: FormatException

Exception Type: System.FormatException

Error Location : Input string was not in a correct format.

 Error Page Url: http://localhost:19226/Admin/UploadRecords.aspx

User Host IP: 


--------------------------------*End*------------------------------------------



