-----------Exception Details on  08-09-2021 14:52:44-----------------
-------------------------------------------------------------------------------------



Log Written Date: 08-09-2021 14:52:44

Error Line No : Args e)

Error Message: NullReferenceException

Exception Type: System.NullReferenceException

Error Location : Object reference not set to an instance of an object.

 Error Page Url: http://localhost:19226/Admin/tempCategory.aspx

User Host IP: 


--------------------------------*End*------------------------------------------



