-----------Exception Details on  16-10-2021 00:51:27-----------------
-------------------------------------------------------------------------------------



Log Written Date: 16-10-2021 00:51:27

Error Line No : line 38

Error Message: FormatException

Exception Type: System.FormatException

Error Location : Input string was not in a correct format.

 Error Page Url: http://localhost:19226/Admin/Home.aspx

User Host IP: 


--------------------------------*End*------------------------------------------



-----------Exception Details on  16-10-2021 00:53:26-----------------
-------------------------------------------------------------------------------------



Log Written Date: 16-10-2021 00:53:26

Error Line No : line 38

Error Message: FormatException

Exception Type: System.FormatException

Error Location : Input string was not in a correct format.

 Error Page Url: http://localhost:19226/Admin/CategoryMaster.aspx

User Host IP: 


--------------------------------*End*------------------------------------------



-----------Exception Details on  16-10-2021 01:23:22-----------------
-------------------------------------------------------------------------------------



Log Written Date: 16-10-2021 01:23:22

Error Line No : line 38

Error Message: FormatException

Exception Type: System.FormatException

Error Location : Input string was not in a correct format.

 Error Page Url: http://localhost:19226/Admin/Home.aspx

User Host IP: 


--------------------------------*End*------------------------------------------



-----------Exception Details on  16-10-2021 01:23:34-----------------
-------------------------------------------------------------------------------------



Log Written Date: 16-10-2021 01:23:34

Error Line No : line 38

Error Message: FormatException

Exception Type: System.FormatException

Error Location : Input string was not in a correct format.

 Error Page Url: http://localhost:19226/Admin/CategoryMaster.aspx

User Host IP: 


--------------------------------*End*------------------------------------------



-----------Exception Details on  16-10-2021 01:24:43-----------------
-------------------------------------------------------------------------------------



Log Written Date: 16-10-2021 01:24:43

Error Line No : line 38

Error Message: FormatException

Exception Type: System.FormatException

Error Location : Input string was not in a correct format.

 Error Page Url: http://localhost:19226/Admin/CategoryMaster.aspx

User Host IP: 


--------------------------------*End*------------------------------------------



-----------Exception Details on  16-10-2021 01:25:29-----------------
-------------------------------------------------------------------------------------



Log Written Date: 16-10-2021 01:25:29

Error Line No : line 95

Error Message: IndexOutOfRangeException

Exception Type: System.IndexOutOfRangeException

Error Location : There is no row at position 1.

 Error Page Url: http://localhost:19226/Admin/CategoryMaster.aspx

User Host IP: 


--------------------------------*End*------------------------------------------



-----------Exception Details on  16-10-2021 01:26:06-----------------
-------------------------------------------------------------------------------------



Log Written Date: 16-10-2021 01:26:06

Error Line No : line 38

Error Message: FormatException

Exception Type: System.FormatException

Error Location : Input string was not in a correct format.

 Error Page Url: http://localhost:19226/Admin/CategoryMaster.aspx

User Host IP: 


--------------------------------*End*------------------------------------------



-----------Exception Details on  16-10-2021 01:27:32-----------------
-------------------------------------------------------------------------------------



Log Written Date: 16-10-2021 01:27:32

Error Line No : line 38

Error Message: FormatException

Exception Type: System.FormatException

Error Location : Input string was not in a correct format.

 Error Page Url: http://localhost:19226/Admin/CategoryMaster.aspx

User Host IP: 


--------------------------------*End*------------------------------------------



-----------Exception Details on  16-10-2021 01:27:41-----------------
-------------------------------------------------------------------------------------



Log Written Date: 16-10-2021 01:27:41

Error Line No : line 38

Error Message: FormatException

Exception Type: System.FormatException

Error Location : Input string was not in a correct format.

 Error Page Url: http://localhost:19226/Admin/CategoryMaster.aspx

User Host IP: 


--------------------------------*End*------------------------------------------



-----------Exception Details on  16-10-2021 01:28:01-----------------
-------------------------------------------------------------------------------------



Log Written Date: 16-10-2021 01:28:01

Error Line No : line 38

Error Message: FormatException

Exception Type: System.FormatException

Error Location : Input string was not in a correct format.

 Error Page Url: http://localhost:19226/Admin/CategoryMaster.aspx

User Host IP: 


--------------------------------*End*------------------------------------------



-----------Exception Details on  16-10-2021 01:28:48-----------------
-------------------------------------------------------------------------------------



Log Written Date: 16-10-2021 01:28:48

Error Line No : line 95

Error Message: IndexOutOfRangeException

Exception Type: System.IndexOutOfRangeException

Error Location : There is no row at position 1.

 Error Page Url: http://localhost:19226/Admin/CategoryMaster.aspx

User Host IP: 


--------------------------------*End*------------------------------------------



-----------Exception Details on  16-10-2021 01:29:32-----------------
-------------------------------------------------------------------------------------



Log Written Date: 16-10-2021 01:29:32

Error Line No : line 95

Error Message: IndexOutOfRangeException

Exception Type: System.IndexOutOfRangeException

Error Location : There is no row at position 2.

 Error Page Url: http://localhost:19226/Admin/CategoryMaster.aspx

User Host IP: 


--------------------------------*End*------------------------------------------



-----------Exception Details on  16-10-2021 09:52:59-----------------
-------------------------------------------------------------------------------------



Log Written Date: 16-10-2021 09:52:59

Error Line No : line 95

Error Message: IndexOutOfRangeException

Exception Type: System.IndexOutOfRangeException

Error Location : There is no row at position 2.

 Error Page Url: http://localhost:19226/Admin/CategoryMaster.aspx

User Host IP: 


--------------------------------*End*------------------------------------------



-----------Exception Details on  16-10-2021 10:16:41-----------------
-------------------------------------------------------------------------------------



Log Written Date: 16-10-2021 10:16:41

Error Line No : line 95

Error Message: IndexOutOfRangeException

Exception Type: System.IndexOutOfRangeException

Error Location : There is no row at position 2.

 Error Page Url: http://localhost:19226/Admin/CategoryMaster.aspx

User Host IP: 


--------------------------------*End*------------------------------------------



-----------Exception Details on  16-10-2021 11:16:51-----------------
-------------------------------------------------------------------------------------



Log Written Date: 16-10-2021 11:16:51

Error Line No : line 38

Error Message: FormatException

Exception Type: System.FormatException

Error Location : Input string was not in a correct format.

 Error Page Url: http://localhost:19226/Admin/Home.aspx

User Host IP: 


--------------------------------*End*------------------------------------------



-----------Exception Details on  16-10-2021 11:17:01-----------------
-------------------------------------------------------------------------------------



Log Written Date: 16-10-2021 11:17:01

Error Line No : line 38

Error Message: FormatException

Exception Type: System.FormatException

Error Location : Input string was not in a correct format.

 Error Page Url: http://localhost:19226/Admin/UploadRecords.aspx

User Host IP: 


--------------------------------*End*------------------------------------------



