-----------Exception Details on  22-03-2021 15:24:53-----------------
-------------------------------------------------------------------------------------



Log Written Date: 22-03-2021 15:24:53

Error Line No : line 32

Error Message: ThreadAbortException

Exception Type: System.Threading.ThreadAbortException

Error Location : Thread was being aborted.

 Error Page Url: http://localhost:19225/Admin/CustContact_ExcelUpload.aspx

User Host IP: 


--------------------------------*End*------------------------------------------



-----------Exception Details on  22-03-2021 15:25:35-----------------
-------------------------------------------------------------------------------------



Log Written Date: 22-03-2021 15:25:35

Error Line No : line 32

Error Message: ThreadAbortException

Exception Type: System.Threading.ThreadAbortException

Error Location : Thread was being aborted.

 Error Page Url: http://localhost:19225/Admin/CustContact_ExcelUpload.aspx

User Host IP: 


--------------------------------*End*------------------------------------------



-----------Exception Details on  22-03-2021 15:27:25-----------------
-------------------------------------------------------------------------------------



Log Written Date: 22-03-2021 15:27:25

Error Line No : line 32

Error Message: ThreadAbortException

Exception Type: System.Threading.ThreadAbortException

Error Location : Thread was being aborted.

 Error Page Url: http://localhost:19225/Admin/CustContact_ExcelUpload.aspx

User Host IP: 


--------------------------------*End*------------------------------------------



-----------Exception Details on  22-03-2021 15:37:03-----------------
-------------------------------------------------------------------------------------



Log Written Date: 22-03-2021 15:37:03

Error Line No : line 32

Error Message: ThreadAbortException

Exception Type: System.Threading.ThreadAbortException

Error Location : Thread was being aborted.

 Error Page Url: http://localhost:19225/Admin/CustContact_ExcelUpload.aspx

User Host IP: 


--------------------------------*End*------------------------------------------



