-----------Exception Details on  27-08-2021 16:33:52-----------------
-------------------------------------------------------------------------------------



Log Written Date: 27-08-2021 16:33:52

Error Line No : ine 184

Error Message: SqlException

Exception Type: System.Data.SqlClient.SqlException

Error Location : Procedure or function 'SP_UpdateTemplateCategory' expects parameter '@returnvalue', which was not supplied.

 Error Page Url: http://localhost:19226/Admin/tempCategory.aspx

User Host IP: 


--------------------------------*End*------------------------------------------



-----------Exception Details on  27-08-2021 16:34:23-----------------
-------------------------------------------------------------------------------------



Log Written Date: 27-08-2021 16:34:23

Error Line No : Args e)

Error Message: IndexOutOfRangeException

Exception Type: System.IndexOutOfRangeException

Error Location : An SqlParameter with ParameterName '@returnValue' is not contained by this SqlParameterCollection.

 Error Page Url: http://localhost:19226/Admin/tempCategory.aspx

User Host IP: 


--------------------------------*End*------------------------------------------



